[gd_scene load_steps=3 format=3 uid="uid://dqtxtctwposea"]

[ext_resource type="Texture2D" uid="uid://byr7r61k4s38e" path="res://assets/interface/cercle_0.png" id="1_xw7yi"]
[ext_resource type="Script" path="res://prefabs/bouton_couleur.gd" id="2_qw4d0"]

[node name="TextureButton" type="TextureButton"]
offset_right = 128.0
offset_bottom = 128.0
texture_normal = ExtResource("1_xw7yi")
ignore_texture_size = true
stretch_mode = 4
script = ExtResource("2_qw4d0")

[node name="Label" type="Label" parent="."]
visible = false
layout_mode = 0
offset_top = 128.0
offset_right = 128.0
offset_bottom = 160.0
text = "0"
horizontal_alignment = 1
vertical_alignment = 1

[connection signal="pressed" from="." to="." method="_on_pressed"]
